{
	"v": "4.10.1",
	"fr": 29.9700012207031,
	"ip": 0,
	"op": 52.0000021180034,
	"w": 1920,
	"h": 1920,
	"nm": "Mold",
	"ddd": 0,
	"assets": [{
		"id": "comp_24",
		"layers": [{
			"ddd": 0,
			"ind": 1,
			"ty": 1,
			"nm": "Dark Gray Solid 1",
			"sr": 1,
			"ks": {
				"o": {
					"a": 0,
					"k": 100,
					"ix": 11
				},
				"r": {
					"a": 0,
					"k": 2.104,
					"ix": 10
				},
				"p": {
					"a": 0,
					"k": [1078, 785, 0],
					"ix": 2
				},
				"a": {
					"a": 0,
					"k": [960, 960, 0],
					"ix": 1
				},
				"s": {
					"a": 0,
					"k": [100, 100, 100],
					"ix": 6
				}
			},
			"ao": 0,
			"hasMask": true,
			"masksProperties": [{
				"inv": false,
				"mode": "a",
				"pt": {
					"a": 0,
					"k": {
						"i": [
							[0, 0],
							[1.727, -3.815],
							[-3.632, -108.953],
							[0, 0],
							[0, 0]
						],
						"o": [
							[0, 0],
							[-17.031, 37.63],
							[4, 120],
							[0, 0],
							[0, 0]
						],
						"v": [
							[861.563, 739.002],
							[857.57, 743.164],
							[753.145, 1100.858],
							[884, 1332],
							[878.903, 1045.222]
						],
						"c": true
					},
					"ix": 1
				},
				"o": {
					"a": 0,
					"k": 100,
					"ix": 3
				},
				"x": {
					"a": 0,
					"k": 0,
					"ix": 4
				},
				"nm": "Mask 1"
			}, {
				"inv": false,
				"mode": "a",
				"pt": {
					"a": 0,
					"k": {
						"i": [
							[0, 0],
							[-1.599, -2.932],
							[-3.674, -110.207],
							[0, 0],
							[0, 0]
						],
						"o": [
							[0, 0],
							[17.99, 32.999],
							[4, 120],
							[0, 0],
							[0, 0]
						],
						"v": [
							[861.598, 739.287],
							[865.916, 743.086],
							[996.104, 1093.667],
							[883.5, 1332],
							[865.91, 1045.512]
						],
						"c": true
					},
					"ix": 1
				},
				"o": {
					"a": 0,
					"k": 100,
					"ix": 3
				},
				"x": {
					"a": 0,
					"k": 0,
					"ix": 4
				},
				"nm": "Mask 2"
			}],
			"sw": 1920,
			"sh": 1920,
			"sc": "#ffffff",
			"ip": 0,
			"op": 1500.00006109625,
			"st": 0,
			"bm": 0
		}]
	}],
	"layers": [{
		"ddd": 0,
		"ind": 1,
		"ty": 0,
		"nm": "Dark Gray Solid 1 Comp 1",
		"refId": "comp_24",
		"sr": 1,
		"ks": {
			"o": {
				"a": 0,
				"k": 100,
				"ix": 11
			},
			"r": {
				"a": 0,
				"k": 0,
				"ix": 10
			},
			"p": {
				"a": 0,
				"k": [952, 1064, 0],
				"ix": 2
			},
			"a": {
				"a": 0,
				"k": [960, 960, 0],
				"ix": 1
			},
			"s": {
				"a": 1,
				"k": [{
					"i": {
						"x": [0.667, 0.667, 0.667],
						"y": [1, 1, 1]
					},
					"o": {
						"x": [0.333, 0.333, 0.333],
						"y": [0, 0, 0]
					},
					"n": ["0p667_1_0p333_0", "0p667_1_0p333_0", "0p667_1_0p333_0"],
					"t": 35.071,
					"s": [100, 100, 100],
					"e": [0, 0, 100]
				}, {
					"t": 46.0000018736184
				}],
				"ix": 6
			}
		},
		"ao": 0,
		"hasMask": true,
		"masksProperties": [{
			"inv": false,
			"mode": "a",
			"pt": {
				"a": 1,
				"k": [{
					"i": {
						"x": 0.667,
						"y": 1
					},
					"o": {
						"x": 0.333,
						"y": 0
					},
					"n": "0p667_1_0p333_0",
					"t": 11,
					"s": [{
						"i": [
							[0, 0],
							[0, 0],
							[0, 0],
							[0, 0]
						],
						"o": [
							[0, 0],
							[0, 0],
							[0, 0],
							[0, 0]
						],
						"v": [
							[1300, 1169.91],
							[668, 1169.91],
							[668, 1192],
							[1308, 1196]
						],
						"c": true
					}],
					"e": [{
						"i": [
							[0, 0],
							[0, 0],
							[0, 0],
							[0, 0]
						],
						"o": [
							[0, 0],
							[0, 0],
							[0, 0],
							[0, 0]
						],
						"v": [
							[1304, 548],
							[672, 548],
							[672, 1300],
							[1304, 1300]
						],
						"c": true
					}]
				}, {
					"t": 22.0000008960784
				}],
				"ix": 1
			},
			"o": {
				"a": 0,
				"k": 100,
				"ix": 3
			},
			"x": {
				"a": 0,
				"k": 0,
				"ix": 4
			},
			"nm": "Mask 1"
		}],
		"w": 1920,
		"h": 1920,
		"ip": 5.00000020365417,
		"op": 1505.00006129991,
		"st": 5.00000020365417,
		"bm": 0
	}, {
		"ddd": 0,
		"ind": 2,
		"ty": 4,
		"nm": "Shape Layer 2",
		"sr": 1,
		"ks": {
			"o": {
				"a": 0,
				"k": 100,
				"ix": 11
			},
			"r": {
				"a": 1,
				"k": [{
					"i": {
						"x": [0.667],
						"y": [1]
					},
					"o": {
						"x": [0.333],
						"y": [0]
					},
					"n": ["0p667_1_0p333_0"],
					"t": 0,
					"s": [-40],
					"e": [0]
				}, {
					"i": {
						"x": [0.667],
						"y": [1]
					},
					"o": {
						"x": [0.333],
						"y": [0]
					},
					"n": ["0p667_1_0p333_0"],
					"t": 8.5,
					"s": [0],
					"e": [0]
				}, {
					"i": {
						"x": [0.667],
						"y": [1]
					},
					"o": {
						"x": [0.333],
						"y": [0]
					},
					"n": ["0p667_1_0p333_0"],
					"t": 25.5,
					"s": [0],
					"e": [-40]
				}, {
					"t": 34.0000013848484
				}],
				"ix": 10
			},
			"p": {
				"a": 0,
				"k": [1009, 551.875, 0],
				"ix": 2
			},
			"a": {
				"a": 0,
				"k": [-105, -344.125, 0],
				"ix": 1
			},
			"s": {
				"a": 0,
				"k": [-100, 100, 100],
				"ix": 6
			}
		},
		"ao": 0,
		"shapes": [{
			"ty": "gr",
			"it": [{
				"ind": 0,
				"ty": "sh",
				"ix": 1,
				"ks": {
					"a": 0,
					"k": {
						"i": [
							[0, 0],
							[0, 0],
							[-4, -120],
							[0, 0],
							[0, 0],
							[0, 0]
						],
						"o": [
							[0, 0],
							[0, 0],
							[4, 120],
							[0, 0],
							[0, 0],
							[0, 0]
						],
						"v": [
							[149, -358.123],
							[149.896, -251.247],
							[48, 118],
							[178, 358],
							[-122, 358],
							[-124, -358]
						],
						"c": true
					},
					"ix": 2
				},
				"nm": "Path 1",
				"mn": "ADBE Vector Shape - Group",
				"hd": false
			}, {
				"ty": "fl",
				"c": {
					"a": 0,
					"k": [255, 255, 255, 1],
					"ix": 4
				},
				"o": {
					"a": 0,
					"k": 100,
					"ix": 5
				},
				"r": 1,
				"nm": "Fill 1",
				"mn": "ADBE Vector Graphic - Fill",
				"hd": false
			}, {
				"ty": "tr",
				"p": {
					"a": 0,
					"k": [-254, 14],
					"ix": 2
				},
				"a": {
					"a": 0,
					"k": [0, 0],
					"ix": 1
				},
				"s": {
					"a": 0,
					"k": [100, 100],
					"ix": 3
				},
				"r": {
					"a": 0,
					"k": 0,
					"ix": 6
				},
				"o": {
					"a": 0,
					"k": 100,
					"ix": 7
				},
				"sk": {
					"a": 0,
					"k": 0,
					"ix": 4
				},
				"sa": {
					"a": 0,
					"k": 0,
					"ix": 5
				},
				"nm": "Transform"
			}],
			"nm": "Rectangle 1",
			"np": 3,
			"cix": 2,
			"ix": 1,
			"mn": "ADBE Vector Group",
			"hd": false
		}],
		"ip": 0,
		"op": 1500.00006109625,
		"st": 0,
		"bm": 0
	}, {
		"ddd": 0,
		"ind": 3,
		"ty": 4,
		"nm": "Shape Layer 1",
		"sr": 1,
		"ks": {
			"o": {
				"a": 0,
				"k": 100,
				"ix": 11
			},
			"r": {
				"a": 1,
				"k": [{
					"i": {
						"x": [0.667],
						"y": [1]
					},
					"o": {
						"x": [0.333],
						"y": [0]
					},
					"n": ["0p667_1_0p333_0"],
					"t": 0,
					"s": [40],
					"e": [0]
				}, {
					"i": {
						"x": [0.667],
						"y": [1]
					},
					"o": {
						"x": [0.333],
						"y": [0]
					},
					"n": ["0p667_1_0p333_0"],
					"t": 8.5,
					"s": [0],
					"e": [0]
				}, {
					"i": {
						"x": [0.667],
						"y": [1]
					},
					"o": {
						"x": [0.333],
						"y": [0]
					},
					"n": ["0p667_1_0p333_0"],
					"t": 25.5,
					"s": [0],
					"e": [40]
				}, {
					"t": 34.0000013848484
				}],
				"ix": 10
			},
			"p": {
				"a": 0,
				"k": [950.938, 551.875, 0],
				"ix": 2
			},
			"a": {
				"a": 0,
				"k": [-105.063, -344.125, 0],
				"ix": 1
			},
			"s": {
				"a": 0,
				"k": [100, 100, 100],
				"ix": 6
			}
		},
		"ao": 0,
		"shapes": [{
			"ty": "gr",
			"it": [{
				"ind": 0,
				"ty": "sh",
				"ix": 1,
				"ks": {
					"a": 0,
					"k": {
						"i": [
							[0, 0],
							[0, 0],
							[-4, -120],
							[0, 0],
							[0, 0],
							[0, 0]
						],
						"o": [
							[0, 0],
							[0, 0],
							[4, 120],
							[0, 0],
							[0, 0],
							[0, 0]
						],
						"v": [
							[149, -358.123],
							[149.896, -251.247],
							[48, 118],
							[178, 358],
							[-122, 358],
							[-124, -358]
						],
						"c": true
					},
					"ix": 2
				},
				"nm": "Path 1",
				"mn": "ADBE Vector Shape - Group",
				"hd": false
			}, {
				"ty": "fl",
				"c": {
					"a": 0,
					"k": [255, 255, 255, 1],
					"ix": 4
				},
				"o": {
					"a": 0,
					"k": 100,
					"ix": 5
				},
				"r": 1,
				"nm": "Fill 1",
				"mn": "ADBE Vector Graphic - Fill",
				"hd": false
			}, {
				"ty": "tr",
				"p": {
					"a": 0,
					"k": [-254, 14],
					"ix": 2
				},
				"a": {
					"a": 0,
					"k": [0, 0],
					"ix": 1
				},
				"s": {
					"a": 0,
					"k": [100, 100],
					"ix": 3
				},
				"r": {
					"a": 0,
					"k": 0,
					"ix": 6
				},
				"o": {
					"a": 0,
					"k": 100,
					"ix": 7
				},
				"sk": {
					"a": 0,
					"k": 0,
					"ix": 4
				},
				"sa": {
					"a": 0,
					"k": 0,
					"ix": 5
				},
				"nm": "Transform"
			}],
			"nm": "Rectangle 1",
			"np": 3,
			"cix": 2,
			"ix": 1,
			"mn": "ADBE Vector Group",
			"hd": false
		}],
		"ip": 0,
		"op": 1500.00006109625,
		"st": 0,
		"bm": 0
	}]
}